…
    ## New names:
    ## * `` -> ...15
    ## * `` -> ...16
    ## * `` -> ...17

``` r
Mr_Trash_Wheel=janitor::clean_names(Mr_Trash_Wheel)
```

``` r
drop_na(Mr_Trash_Wheel,dumpster)
```

    ## # A tibble: 454 × 17
    ##    dumpster month  year date                weight_tons volume_cubic_yards
    ##    <chr>    <chr> <dbl> <dttm>                    <dbl>              <dbl>
    ##  1 1        May    2014 2014-05-16 00:00:00        4.31                 18
    ##  2 2        May    2014 2014-05-16 00:00:00        2.74                 13
    ##  3 3        May    2014 2014-05-16 00:00:00        3.45                 15
    ##  4 4        May    2014 2014-05-17 00:00:00        3.1                  15
    ##  5 5        May    2014 2014-05-17 00:00:00        4.06                 18
    ##  6 6        May    2014 2014-05-20 00:00:00        2.71                 13
    ##  7 7        May    2014 2014-05-21 00:00:00        1.91                  8
    ##  8 8        May    2014 2014-05-28 00:00:00        3.7                  16
    ##  9 9        June   2014 2014-06-05 00:00:00        2.52                 14
    ## 10 10       June   2014 2014-06-11 00:00:00        3.76                 18
    ## # … with 444 more rows, and 11 more variables: plastic_bottles <dbl>,
    ## #   polystyrene <dbl>, cigarette_butts <dbl>, glass_bottles <dbl>,
    ## #   grocery_bags <dbl>, chip_bags <dbl>, sports_balls <dbl>,
    ## #   homes_powered <dbl>, x15 <chr>, x16 <lgl>, x17 <lgl>
…
Read and clean precipitation data for 2018 and 2019

``` r
Mr_Trash_Wheel_2018<-filter(Mr_Trash_Wheel, year==2018)
Mr_Trash_Wheel_2018=janitor::clean_names(Mr_Trash_Wheel_2018)
drop.na=(Mr_Trash_Wheel_2018)
mutate(Mr_Trash_Wheel_2018, year=str_to_upper(year))
```

    ## # A tibble: 93 × 17
    ##    dumpster month    year  date                weight_tons volume_cubic_yards
    ##    <chr>    <chr>    <chr> <dttm>                    <dbl>              <dbl>
    ##  1 222      January  2018  2018-01-15 00:00:00        2.17                 15
    ##  2 223      January  2018  2018-01-25 00:00:00        2.08                 15
    ##  3 224      February 2018  2018-02-05 00:00:00        3.12                 18
    ##  4 225      February 2018  2018-02-05 00:00:00        2.45                 15
    ##  5 226      February 2018  2018-02-05 00:00:00        3.72                 15
    ##  6 227      February 2018  2018-02-06 00:00:00        4                    18
    ##  7 228      February 2018  2018-02-11 00:00:00        3.54                 15
    ##  8 229      February 2018  2018-02-11 00:00:00        3.19                 15
    ##  9 230      February 2018  2018-02-11 00:00:00        4.51                 18
    ## 10 231      February 2018  2018-02-13 00:00:00        2.97                 15
    ## # … with 83 more rows, and 11 more variables: plastic_bottles <dbl>,
    ## #   polystyrene <dbl>, cigarette_butts <dbl>, glass_bottles <dbl>,
    ## #   grocery_bags <dbl>, chip_bags <dbl>, sports_balls <dbl>,
    ## #   homes_powered <dbl>, x15 <chr>, x16 <lgl>, x17 <lgl>
…
